<?xml version="1.0" encoding="UTF-8" standalone="no"?>
<!-- Created with Inkscape (http://www.inkscape.org/) -->

<svg
   xmlns:dc="http://purl.org/dc/elements/1.1/"
   xmlns:cc="http://creativecommons.org/ns#"
   xmlns:rdf="http://www.w3.org/1999/02/22-rdf-syntax-ns#"
   xmlns:svg="http://www.w3.org/2000/svg"
   xmlns="http://www.w3.org/2000/svg"
   xmlns:xlink="http://www.w3.org/1999/xlink"
   xmlns:sodipodi="http://sodipodi.sourceforge.net/DTD/sodipodi-0.dtd"
   xmlns:inkscape="http://www.inkscape.org/namespaces/inkscape"
   width="1672.05"
   height="334.39999"
   id="svg2786"
   sodipodi:version="0.32"
   inkscape:version="0.46+devel"
   version="1.0"
   sodipodi:docname="logo cosider.svg"
   inkscape:output_extension="org.inkscape.output.svg.inkscape">
  <defs
     id="defs2788">
    <linearGradient
       id="linearGradient3710">
      <stop
         style="stop-color:#5f87bf;stop-opacity:1"
         offset="0"
         id="stop3712" />
      <stop
         id="stop3720"
         offset="0.11715867"
         style="stop-color:#5077af;stop-opacity:1" />
      <stop
         style="stop-color:#406fa0;stop-opacity:1"
         offset="0.24953875"
         id="stop3722" />
      <stop
         id="stop3724"
         offset="0.36738926"
         style="stop-color:#4068a0;stop-opacity:1" />
      <stop
         style="stop-color:#4f6fa0;stop-opacity:1"
         offset="0.45074838"
         id="stop3726" />
      <stop
         id="stop3728"
         offset="0.54040569"
         style="stop-color:#90afd0;stop-opacity:1" />
      <stop
         style="stop-color:#a0b8df;stop-opacity:1"
         offset="0.70620966"
         id="stop3730" />
      <stop
         id="stop3718"
         offset="0.85055351"
         style="stop-color:#b0c7e0;stop-opacity:1" />
      <stop
         style="stop-color:#b0c7e0;stop-opacity:1"
         offset="1"
         id="stop3714" />
    </linearGradient>
    <inkscape:perspective
       sodipodi:type="inkscape:persp3d"
       inkscape:vp_x="0 : 526.18109 : 1"
       inkscape:vp_y="0 : 1000 : 0"
       inkscape:vp_z="744.09448 : 526.18109 : 1"
       inkscape:persp3d-origin="372.04724 : 350.78739 : 1"
       id="perspective2794" />
    <inkscape:perspective
       id="perspective2898"
       inkscape:persp3d-origin="0.5 : 0.33333333 : 1"
       inkscape:vp_z="1 : 0.5 : 1"
       inkscape:vp_y="0 : 1000 : 0"
       inkscape:vp_x="0 : 0.5 : 1"
       sodipodi:type="inkscape:persp3d" />
    <linearGradient
       inkscape:collect="always"
       xlink:href="#linearGradient3710"
       id="linearGradient3808"
       gradientUnits="userSpaceOnUse"
       gradientTransform="matrix(57.708334,0,0,0.94095941,-59174.73,-24.964799)"
       x1="1050"
       y1="585.15002"
       x2="1050"
       y2="568.21252" />
  </defs>
  <sodipodi:namedview
     id="base"
     pagecolor="#ffffff"
     bordercolor="#666666"
     borderopacity="1.0"
     inkscape:pageopacity="0.0"
     inkscape:pageshadow="2"
     inkscape:zoom="0.30829271"
     inkscape:cx="1097.1185"
     inkscape:cy="-109.87243"
     inkscape:document-units="px"
     inkscape:current-layer="layer1"
     showgrid="false"
     inkscape:window-width="1280"
     inkscape:window-height="747"
     inkscape:window-x="0"
     inkscape:window-y="25"
     inkscape:snap-midpoints="false"
     inkscape:snap-smooth-nodes="false"
     inkscape:connector-spacing="3" />
  <metadata
     id="metadata2791">
    <rdf:RDF>
      <cc:Work
         rdf:about="">
        <dc:format>image/svg+xml</dc:format>
        <dc:type
           rdf:resource="http://purl.org/dc/dcmitype/StillImage" />
        <dc:title />
      </cc:Work>
    </rdf:RDF>
  </metadata>
  <g
     inkscape:label="Calque 1"
     inkscape:groupmode="layer"
     id="layer1"
     transform="translate(307.45253,-193.30618)">
    <rect
       style="fill:#dadad9;fill-opacity:1;stroke:#ffffff;stroke-width:1.10000001999999997;stroke-miterlimit:4;stroke-opacity:1;stroke-dasharray:none"
       id="rect4527"
       width="1761.7268"
       height="465.51324"
       x="-76.247856"
       y="-82.956696"
       transform="translate(-307.45253,193.30618)" />
    <path
       sodipodi:type="arc"
       style="fill:#ffffff;fill-opacity:1;stroke:none"
       id="path3780"
       sodipodi:cx="640.73663"
       sodipodi:cy="518.32202"
       sodipodi:rx="4.7544641"
       sodipodi:ry="4.6651788"
       d="m 645.4911,518.32202 a 4.7544641,4.6651788 0 1 1 -9.50893,0 4.7544641,4.6651788 0 1 1 9.50893,0 z"
       transform="matrix(4.3280475,0,0,4.3280475,-1431.6988,-1763.7517)"
       inkscape:export-filename="C:\Documents and Settings\lukin\Bureau\cosider.png"
       inkscape:export-xdpi="90"
       inkscape:export-ydpi="90" />
    <path
       inkscape:export-ydpi="90"
       inkscape:export-xdpi="90"
       inkscape:export-filename="C:\Documents and Settings\lukin\Bureau\cosider.png"
       transform="matrix(3.0062623,0,0,3.0062623,-584.78259,-1078.6413)"
       d="m 645.4911,518.32202 a 4.7544641,4.6651788 0 1 1 -9.50893,0 4.7544641,4.6651788 0 1 1 9.50893,0 z"
       sodipodi:ry="4.6651788"
       sodipodi:rx="4.7544641"
       sodipodi:cy="518.32202"
       sodipodi:cx="640.73663"
       id="path4538"
       style="fill:none;fill-opacity:1;stroke:#ff0000;stroke-width:1.39495254000000002;stroke-miterlimit:4;stroke-opacity:1;stroke-dasharray:none"
       sodipodi:type="arc" />
    <text
       inkscape:export-ydpi="90"
       inkscape:export-xdpi="90"
       inkscape:export-filename="C:\Documents and Settings\lukin\Bureau\cosider.png"
       id="text3784"
       y="486.24811"
       x="1334.8253"
       style="font-size:18.94269561999999851px;font-style:normal;font-weight:normal;fill:#ff0000;fill-opacity:1;stroke:#ff0000;stroke-width:2.20000000000000018;stroke-linecap:butt;stroke-linejoin:miter;stroke-miterlimit:4;stroke-opacity:1;stroke-dasharray:none;font-family:Bitstream Vera Sans"
       xml:space="preserve"><tspan
         style="fill:#ff0000;fill-opacity:1;stroke:#ff0000;stroke-width:2.20000000000000018;stroke-miterlimit:4;stroke-opacity:1;stroke-dasharray:none"
         y="486.24811"
         x="1334.8253"
         id="tspan3786"
         sodipodi:role="line">R</tspan></text>
    <path
       style="fill:#ff0000;fill-opacity:1;stroke:#ffffff;stroke-width:20.19199944;stroke-linecap:round;stroke-miterlimit:4;stroke-opacity:1;stroke-dasharray:none;stroke-dashoffset:0"
       d="M 813.06345,326.34391 610.91626,510.29786"
       id="path3788"
       sodipodi:nodetypes="cc"
       inkscape:export-filename="C:\Documents and Settings\lukin\Bureau\cosider.png"
       inkscape:export-xdpi="90"
       inkscape:export-ydpi="90" />
    <path
       inkscape:export-ydpi="90"
       inkscape:export-xdpi="90"
       inkscape:export-filename="C:\Documents and Settings\lukin\Bureau\cosider.png"
       sodipodi:nodetypes="ccccccccsscccccccsccccccccssssssssscccccssscccscccccccccccccccccccccccccccccccccccccccccccccccccccccccccccccccccsssscccccscccsscccscccssssssssccccsssssssssssscccsscccsccssssssssssccccccccccccccccscssssssc"
       id="path3790"
       d="m 453.06371,219.44782 c -1.88804,0 -13.21098,9.6991 -25.1621,21.58002 l -21.75481,21.6674 0,30.75379 -0.44125,29.78203 -61.9399,-0.68835 -46.65483,46.39271 0,41.6748 c 0,36.91017 0.68232,42.67632 5.679,50.76111 6.37009,10.30697 15.25025,16.99053 25.24952,18.87161 3.73139,0.70199 23.63149,1.45057 44.12112,1.66 l 37.21899,0.34947 23.50218,-21.6674 23.58952,-21.66745 0,-109.73491 c 0.0169,-84.88153 -0.75197,-109.73491 -3.40744,-109.73491 z m 871.50149,96.19278 c -6.6939,0.10145 -51.3896,10.42644 -67.4485,15.72635 -8.2255,2.71473 -9.8938,5.15769 -15.4642,22.45377 l -6.2906,19.3958 10.659,10.92104 c 10.8844,8.93684 14.0227,2.54616 32.4138,19.83266 l 6.9894,5.67899 -20.619,-0.78632 -20.7062,-0.69903 -3.4074,-13.54213 c -4.8478,-19.14236 -12.3756,-28.24705 -24.2011,-29.26849 -7.3953,-0.63879 -11.403,0.91873 -16.9495,6.46529 -10.0656,10.06554 -19.5551,30.96931 -21.1433,46.74219 -1.731,17.19147 3.8841,26.12321 19.1336,30.22951 9.0195,2.42862 10.8332,3.7805 8.3874,6.72741 -4.9463,5.96008 -30.0752,15.69637 -45.082,17.47371 -14.6375,1.73357 -19.0241,7.98175 -7.5139,10.65901 3.4599,0.8047 11.3232,2.55487 17.4739,3.93155 18.5552,4.15292 38.683,3.48644 45.781,-1.48531 3.5533,-2.48869 10.7824,-11.29542 16.0759,-19.57051 l 9.6106,-15.02739 37.3936,0 37.3938,0 3.32,-19.65799 c 1.8269,-10.82992 2.6016,-22.80798 1.6601,-26.55999 -0.9418,-3.75202 -10.9851,-14.65195 -22.279,-24.2885 -11.294,-9.63655 -20.9797,-18.70471 -21.58,-20.09472 -0.6004,-1.39002 8.3005,-5.20283 19.8326,-8.47476 l 20.9684,-5.94105 3.9316,-14.67793 c 2.1522,-8.05073 3.3068,-15.21545 2.5337,-15.98848 -0.089,-0.0888 -0.4274,-0.18154 -0.8738,-0.17478 z m -1456.5214,4.45582 -46.21795,46.04325 0.35305,73.99227 c 0,17.68654 14.59699,37.98653 35.61091,38.55622 l 84.517335,0.76856 -0.600964,-51.72223 -70.276271,0.0285 0.19254,-55.48259 63.75775,0.0666 c 13.048681,-14.54381 30.596918,-32.8489 46.893403,-52.05524 l -114.229773,-0.19465 z m 128.4318228,2.79577 -44.7398138,48.53218 c -0.568945,21.99214 -1.965734,46.35909 -1.683079,72.10607 0.108632,15.17771 13.787231,33.66374 31.593279,34.28042 l 86.223899,0.5885 47.514272,-46.73325 0,-49.01379 23.58959,22.54106 24.58794,24.03889 c -12.1175,0.67049 -18.4415,0.79889 -30.56145,1.35524 -11.26578,11.67904 -39.319936,39.80177 -48.045249,48.56956 l 110.109359,0.21219 c 12.22088,-11.76526 26.18639,-25.64045 39.58852,-37.90919 0.0455,10.14399 -0.28024,27.66888 -0.33044,39.71789 l 51.60519,-44.09513 c -0.075,-37.40889 0.13318,-73.63868 -0.0934,-111.04722 l -49.83142,47.77445 -1.09131,50.17104 -50.9518,-52.72049 37.98397,0.55795 c 16.26928,-15.54125 33.92667,-31.95915 49.25316,-48.40697 -12.4062,-0.64767 -22.9114,-0.51938 -62.93983,-0.51938 l -55.30431,0 -38.16757,39.7652 0.0497,-39.26593 -60.346709,-0.4993 -58.0127124,0 z M 689.60824,439.756 c 0.12681,-17.23806 0.48757,-58.16783 0.82351,-64.16809 6.65347,-0.32516 19.44738,-0.27887 24.97026,-0.50649 14.2225,-15.5218 29.27636,-32.64314 43.81768,-48.85345 l -74.80394,-0.53989 -23.0653,22.97795 -23.15265,23.06525 0,52.24642 0.17468,61.33965 c 5.2635,1.20404 49.48206,-37.81628 51.23575,-45.56129 z m -177.30859,-114.06797 -44.99486,42.9853 c 0.19856,27.41789 0.70082,53.81076 1.25275,82.5977 2.92316,18.57274 19.84209,28.7525 37.21901,30.5929 l 75.98108,0.38856 c 14.47649,-16.64966 28.91883,-32.73356 44.40277,-50.18326 l -46.30489,0.0359 47.65829,-45.42094 -0.4992,-27.70833 0,-33.28742 -57.31381,0 -57.40115,0 z m 360.57013,5.59155 c -3.59624,0 -7.66825,4.63321 -12.58114,14.32842 l -7.25152,14.32851 4.45566,35.2969 c 2.47574,19.40277 5.14313,39.3857 5.94121,44.38319 0.85194,5.33531 3.15827,9.0863 5.50413,9.0863 2.19739,0 6.18122,-4.08878 8.91155,-9.0863 5.5729,-10.19989 6.95764,-54.8921 2.70862,-89.46539 -1.95142,-15.87677 -3.21129,-18.87163 -7.68851,-18.87163 z m -467.06179,-4.07393 c -0.58055,34.90452 -0.36286,69.13994 -0.78277,103.72405 l -56.69142,0.29958 -0.28707,-28.04532 c 0.10611,-24.53976 -1.17346,-26.03843 2.08971,-26.3068 6.16574,-0.50712 12.14306,-0.33942 16.23965,-0.52731 l 39.4319,-49.14414 z m 552.24612,12.81081 c -3.88644,0.54739 -8.11467,5.11533 -11.27042,12.66846 -3.87306,9.26904 -3.81214,11.99925 0.17479,27.87056 6.97152,27.75426 7.7746,26.53094 -18.69699,25.59896 l -23.06528,-0.78632 -0.87371,-10.48425 c -1.17549,-14.20207 -7.29599,-13.49746 -13.01791,1.48531 -3.0672,8.03099 -4.23418,18.36031 -3.66948,31.45264 l 0.78621,19.48323 32.15169,0.78631 c 26.54431,0.65845 32.82793,0.15376 35.29682,-3.58214 4.47544,-6.77212 6.83647,-7.64591 8.05038,-0.0877 0.59335,3.69447 4.2737,4.28104 30.47911,4.28104 17.64078,0 32.98318,-1.1082 33.72428,-2.62098 1.9334,-3.94666 1.1583,-2.96501 9.2611,1.39785 8.9114,4.79833 32.4174,4.31421 36.4327,0.69892 4.3483,-3.91511 4.0689,-3.73269 4.6929,-0.1248 0.4072,2.35359 8.9043,3.39721 36.6544,3.44293 0.7656,10e-4 1.5445,-2.11986 2.337,-2.11986 l 2.5837,2.1218 37.7806,0 4.3685,-15.11477 c 5.8119,-19.99265 6.0485,-60.37171 0.3493,-60.37171 -5.9969,0 -18.3473,17.56884 -18.3473,26.12322 0,6.13798 -1.2227,7.42635 -7.2516,7.42635 -6.4695,0 -7.1333,-0.84909 -5.5044,-7.33897 4.991,-19.88587 5.1277,-23.41474 0.7865,-23.41474 -3.6998,0 -12.8143,8.62653 -17.1452,15.21797 -2.2328,3.39763 -1.6391,4.95831 -1.6391,7.23573 0,6.8985 -4.3547,9.25109 -13.0179,7.07682 -5.2961,-1.3292 -6.5957,-2.98271 -5.1547,-6.55266 1.0601,-2.62653 2.6748,-9.52309 3.4947,-15.28947 1.1285,-7.9383 -0.1093,-12.31637 -2.5336,-10.48425 -7.4743,5.64842 -21.4569,16.37591 -20.6014,23.76426 0.5596,4.8313 -5.0226,5.59161 -18.103,5.59161 l -15.2022,0 -4.281,-18.78424 c -6.6341,-29.29153 -13.4474,-31.85748 -25.2496,-9.61057 -6.3872,12.04003 -6.553,12.88987 -2.0093,17.91056 8.8239,9.75042 6.1139,12.25258 -12.66857,11.35792 l -17.47369,-0.87371 -7.33885,-30.31691 c -4.05807,-16.66693 -8.70462,-31.59501 -10.30951,-33.20006 -1.48614,-1.48615 -3.21338,-2.08356 -4.98005,-1.83472 z m -139.09074,33.37482 c -2.00017,0.0983 -3.67092,0.95032 -4.8053,2.70838 -1.45232,2.25077 -4.09326,8.78886 -5.85377,14.50318 -3.04681,9.89049 -2.7198,10.95422 6.98944,22.8032 12.2204,14.91326 12.6518,19.25666 2.53378,26.3853 -22.72018,16.00752 -39.01335,20.41095 -59.14851,15.98845 -7.25388,-1.59323 -8.64946,-1.0505 -8.64946,3.32002 0,5.69802 10.70098,12.92745 30.57899,20.70633 16.2073,6.34246 32.04964,6.51966 42.19901,0.52425 4.79393,-2.83178 11.90496,-12.35161 17.91057,-24.02634 13.70385,-26.64044 13.96166,-45.74963 0.87371,-65.26432 -7.53107,-11.22911 -16.62837,-17.94446 -22.6285,-17.64844 z m -814.0129639,1.22318 55.0259419,0 0,53.12003 c -19.395511,0.0856 -38.147589,-0.10356 -56.3021789,-0.093 l 1.276237,-53.02738 z m 567.5462039,2.79575 1.57265,54.51794 c -13.8149,0.0328 -36.77308,-0.11296 -54.60891,0.10694 -0.78452,-15.37765 -0.42079,-40.58656 -0.90393,-54.02394 l 53.94015,-0.60096 z m 639.73399,20.90769 c 4.6283,2.61745 7.2755,7.18815 7.4763,12.2111 -2.0453,8.00757 -6.4587,3.60347 -10.128,0.69279 -6.1726,-4.99736 -6.4132,-12.43906 2.6517,-12.90391 z m -213.20047,58.94718 c -1.98895,0.22899 -3.39434,1.98309 -5.94114,5.50423 -8.60237,11.89249 -10.42469,13.30434 3.66934,21.92953 10.98587,7.03541 12.89667,7.20865 19.22107,1.48521 4.5188,-4.08936 5.5327,-4.03647 13.1054,0.43689 9.7597,5.76519 14.3573,4.3115 19.8326,-5.24215 6.4816,-11.30941 5.7891,-12.47673 -9.0864,-20.00741 -9.6182,-4.86919 -10.1614,-5.16486 -15.2893,-0.52414 -5.1223,4.63532 -5.8833,4.60645 -15.7265,-0.0877 -5.1594,-2.46037 -7.7965,-3.72377 -9.78507,-3.49476 z"
       style="fill:#ff0000;fill-opacity:1;stroke:#ffffff;stroke-width:9.79164886;stroke-miterlimit:4;stroke-opacity:1;stroke-dasharray:none" />
    <path
       style="font-size:26.90761566px;font-style:normal;font-variant:normal;font-weight:normal;font-stretch:normal;text-align:start;line-height:125%;writing-mode:lr-tb;text-anchor:start;fill:#ff0000;fill-opacity:1;stroke:#ffffff;stroke-width:9.79164886;stroke-linecap:butt;stroke-linejoin:miter;stroke-miterlimit:4;stroke-opacity:1;stroke-dasharray:none;font-family:Metal;-inkscape-font-specification:Metal"
       d="m 891.61039,264.14384 c 0,-1.6486 0.10631,-3.29722 0.31913,-4.94589 0.21272,-1.67518 0.5717,-3.43017 1.07693,-5.26497 0.53185,-1.86131 1.19657,-3.603 1.99431,-5.22508 0.79773,-1.64859 1.82145,-3.23074 3.07123,-4.74645 1.27635,-1.51563 2.71222,-2.80528 4.30771,-3.86897 1.622,-1.09016 3.54983,-1.95436 5.78346,-2.59258 2.26024,-0.66469 4.71985,-0.99714 7.37896,-0.99714 11.40739,6e-5 18.13489,5.70378 20.18244,17.11117 l -6.86046,0 c -0.74457,-3.77585 -2.24698,-6.58118 -4.50712,-8.41598 -2.26026,-1.86131 -5.46445,-2.79198 -9.6126,-2.79204 -5.05224,6e-5 -9.05415,1.94118 -12.00572,5.82338 -2.95157,3.85571 -4.42737,9.13398 -4.42737,15.8348 0,6.56795 1.52899,11.77975 4.58693,15.63538 3.08449,3.85567 7.21935,5.7835 12.40459,5.7835 4.30767,0 7.60493,-1.20987 9.89177,-3.62964 2.31336,-2.44634 3.88221,-6.19564 4.70657,-11.2479 l 6.90028,0 c -1.62205,13.82721 -8.80158,20.7408 -21.53851,20.7408 -3.03138,0 -5.79681,-0.42544 -8.29632,-1.27635 -2.49956,-0.82436 -4.58692,-1.95442 -6.26213,-3.39033 -1.67523,-1.46249 -3.12442,-3.08452 -4.34757,-4.86612 -1.2232,-1.80815 -2.16718,-3.76257 -2.83194,-5.86324 -0.66479,-2.10067 -1.1567,-4.10826 -1.47579,-6.02282 -0.29251,-1.9411 -0.43876,-3.86894 -0.43876,-5.7835 m 67.99717,-13.12254 c 5.39796,3e-5 9.58597,1.79491 12.56413,5.38463 3.00475,3.56319 4.50712,8.58885 4.5072,15.07696 -8e-5,6.16908 -1.51574,11.02189 -4.54707,14.55845 -3.03139,3.53658 -7.17954,5.30486 -12.44445,5.30486 -5.34479,0 -9.51952,-1.78158 -12.52427,-5.34474 -3.00482,-3.56316 -4.50719,-8.49574 -4.50719,-14.79777 0,-6.30199 1.50237,-11.23457 4.50719,-14.79776 3.03133,-3.58972 7.17948,-5.3846 12.44446,-5.38463 m 7.93734,9.45302 c -1.88799,-2.63246 -4.50712,-3.9487 -7.85753,-3.94874 -3.3505,4e-5 -5.99627,1.31628 -7.93742,3.94874 -1.91448,2.63251 -2.87177,6.20897 -2.87177,10.72937 0,4.54704 0.9573,8.1235 2.87177,10.72939 1.94115,2.60589 4.58692,3.90884 7.93742,3.90883 3.29718,10e-6 5.90309,-1.28964 7.81767,-3.86895 1.94106,-2.60589 2.91163,-6.11586 2.91163,-10.52996 0,-4.70654 -0.95729,-8.36276 -2.87177,-10.96868 m 17.3679,-8.3761 5.50435,0 0,6.30202 c 1.67521,-2.63246 3.47002,-4.5204 5.38458,-5.66383 1.94115,-1.14338 4.32095,-1.71508 7.13965,-1.71511 3.6163,3e-5 6.5015,0.93066 8.6553,2.79203 2.1539,1.86138 3.2307,4.34762 3.2307,7.45872 l 0,28.43882 -5.9429,0 0,-26.04566 c -10e-5,-2.28678 -0.7048,-4.09495 -2.114,-5.42452 -1.3828,-1.3295 -3.2574,-1.99427 -5.6239,-1.9943 -3.0846,3e-5 -5.55755,1.15673 -7.41887,3.47008 -1.86143,2.31343 -2.79205,5.38467 -2.79205,9.21371 l 0,20.78069 -6.02286,0 0,-37.61265 m 43.57318,26.40464 c 0.1064,0.82436 0.2526,1.55557 0.4387,2.19375 0.1861,0.61163 0.4919,1.26306 0.9174,1.95441 0.4255,0.69142 0.9439,1.24977 1.5556,1.67522 0.6381,0.42544 1.4891,0.78441 2.5527,1.07693 1.0636,0.2925 2.3001,0.43875 3.7094,0.43875 2.6058,10e-6 4.7198,-0.53185 6.3419,-1.59544 1.622,-1.09022 2.4331,-2.52611 2.4331,-4.30771 0,-1.35611 -0.4521,-2.43304 -1.3562,-3.23078 -0.9041,-0.82425 -2.4065,-1.50235 -4.5071,-2.03419 l -5.5442,-1.31624 c -4.4406,-1.06361 -7.5518,-2.40645 -9.3334,-4.0285 -1.7549,-1.62202 -2.6325,-3.89554 -2.6325,-6.82054 0,-3.48336 1.3163,-6.26209 3.9488,-8.3362 2.6324,-2.10064 6.1292,-3.15098 10.4901,-3.15101 4.3608,3e-5 7.7113,0.99724 10.0513,2.99146 2.3665,1.99434 3.5631,4.85284 3.5898,8.57552 l -6.3021,0 c -0.1596,-4.04177 -2.6591,-6.06266 -7.4986,-6.06269 -2.4464,3e-5 -4.4008,0.51853 -5.8632,1.55556 -1.4359,1.03708 -2.1539,2.41979 -2.1539,4.14815 0,1.30298 0.5451,2.3799 1.6353,3.23079 1.0903,0.85088 2.8586,1.56888 5.3049,2.15385 l 5.7436,1.31624 c 3.7493,0.93066 6.4615,2.22035 8.1368,3.86896 1.6751,1.64864 2.5127,3.86898 2.5128,6.661 -10e-5,3.61634 -1.4093,6.50144 -4.2279,8.65529 -2.7921,2.15384 -6.5547,3.23077 -11.2878,3.23077 -4.9193,0 -8.6155,-1.05029 -11.0883,-3.151 -2.4731,-2.10066 -3.7759,-5.33144 -3.9089,-9.69234 l 6.3419,0 m 45.3506,-26.40464 0,4.86612 -6.1824,0 0,25.76646 c 0,1.32954 0.226,2.23362 0.6781,2.71225 0.452,0.45207 1.3295,0.6781 2.6324,0.6781 1.303,0 2.2603,-0.093 2.8719,-0.27918 l 0,5.02565 c -1.7816,0.31913 -3.4036,0.47859 -4.8661,0.47859 -2.34,0 -4.1349,-0.51854 -5.3846,-1.55556 -1.2233,-1.01045 -1.8348,-2.47294 -1.8348,-4.38747 l 0,-28.43883 -5.1453,0 0,-4.86611 5.1453,0 0,-10.33052 5.9031,0 0,10.33052 6.1824,0 m 24.7382,5.26496 c -1.9678,0.0264 -3.6298,0.22604 -4.9858,0.59833 -1.3562,0.34576 -2.606,0.97061 -3.7493,1.87465 -1.1168,0.90414 -1.9544,2.22035 -2.5129,3.94873 -0.5319,1.70184 -0.7976,3.8291 -0.7976,6.38178 l 0,19.54423 -6.0229,0 0,-37.61265 5.5044,0 0,6.78065 c 1.7283,-2.79201 3.377,-4.79961 4.9458,-6.02282 1.5954,-1.22313 3.377,-1.83473 5.3448,-1.83476 0.3722,3e-5 1.13,0.0666 2.2735,0.19941 l 0,6.14246 m 35.4051,32.34769 -5.4245,0 0,-5.26497 c -1.755,2.49952 -3.5898,4.26781 -5.5042,5.30485 -1.9146,1.06363 -4.2546,1.59544 -7.02,1.59544 -3.6696,0 -6.5813,-0.93066 -8.735,-2.79203 -2.154,-1.86134 -3.2309,-4.34758 -3.2309,-7.45871 l 0,-28.99723 5.9032,0 0,26.60406 c 0,2.26022 0.7046,4.0684 2.114,5.42452 1.4093,1.32954 3.2972,1.9943 5.6638,1.9943 3.1111,0 5.5974,-1.15669 7.4587,-3.47008 1.8613,-2.31339 2.792,-5.38463 2.792,-9.21371 l 0,-21.33909 5.9829,0 0,37.61265 m 38.9863,-24.96874 -6.0228,0 c -0.3457,-2.63246 -1.2897,-4.65336 -2.8319,-6.0627 -1.5158,-1.43587 -3.5366,-2.15382 -6.0627,-2.15385 -3.2441,3e-5 -5.7968,1.32957 -7.6581,3.98861 -1.8348,2.65911 -2.7522,6.32864 -2.7522,11.00859 0,4.44067 0.944,7.93735 2.8319,10.49005 1.888,2.55272 4.4805,3.82908 7.7778,3.82907 5.0788,10e-6 8.1367,-3.01805 9.1738,-9.05415 l 6.0228,0 c -0.3724,4.60022 -1.9146,8.17666 -4.6268,10.72938 -2.6856,2.55271 -6.2754,3.82906 -10.7692,3.82906 -5.1055,0 -9.1606,-1.78158 -12.1653,-5.34474 -3.0048,-3.58975 -4.5072,-8.41597 -4.5072,-14.47867 0,-6.22221 1.5157,-11.19469 4.5471,-14.91743 3.0579,-3.72267 7.1263,-5.58403 12.2052,-5.58406 4.3608,3e-5 7.8309,1.18333 10.4103,3.54987 2.6058,2.34002 4.0816,5.73033 4.4273,10.17097 m 20.3419,-12.64391 0,4.86611 -6.1823,0 0,25.76646 c 0,1.32954 0.226,2.23362 0.6781,2.71225 0.452,0.45207 1.3295,0.67811 2.6325,0.67811 1.3029,0 2.2601,-0.093 2.8717,-0.27919 l 0,5.02565 c -1.7815,0.31913 -3.4035,0.47859 -4.866,0.47859 -2.34,0 -4.1349,-0.51854 -5.3847,-1.55556 -1.2231,-1.01045 -1.8347,-2.47294 -1.8347,-4.38747 l 0,-28.43883 -5.1454,0 0,-4.86611 5.1454,0 0,-10.33051 5.9031,0 0,10.33051 6.1823,0 m 12.4533,-14.75788 0,7.57836 -6.0229,0 0,-7.57836 6.0229,0 m 0.04,14.75788 0,37.61265 -5.9829,0 0,-37.61265 5.9829,0 m 24.7207,-1.07693 c 5.3979,3e-5 9.5859,1.79491 12.5641,5.38463 3.0048,3.56319 4.507,8.58885 4.5071,15.07697 -10e-5,6.16907 -1.5157,11.02188 -4.5469,14.55844 -3.0315,3.53658 -7.1796,5.30486 -12.4446,5.30486 -5.3447,0 -9.5195,-1.78158 -12.5243,-5.34474 -3.0047,-3.56315 -4.5071,-8.49574 -4.5071,-14.79776 0,-6.302 1.5024,-11.23458 4.5071,-14.79777 3.0314,-3.58972 7.1796,-5.3846 12.4446,-5.38463 m 7.9373,9.45302 c -1.888,-2.63246 -4.5072,-3.9487 -7.8576,-3.94873 -3.3504,3e-5 -5.9962,1.31627 -7.9373,3.94873 -1.9146,2.63251 -2.8718,6.20897 -2.8718,10.72938 0,4.54703 0.9572,8.12349 2.8718,10.72938 1.9411,2.60589 4.5869,3.90884 7.9373,3.90883 3.2973,1e-5 5.9032,-1.28964 7.8177,-3.86895 1.9411,-2.60589 2.9117,-6.11586 2.9117,-10.52996 0,-4.70653 -0.9573,-8.36275 -2.8718,-10.96868 m 17.3679,-8.37609 5.5043,0 0,6.30201 c 1.6752,-2.63246 3.4701,-4.52039 5.3847,-5.66383 1.9411,-1.14338 4.3209,-1.71508 7.1396,-1.71511 3.6163,3e-5 6.5014,0.93066 8.6552,2.79204 2.1539,1.86138 3.2308,4.34761 3.2308,7.45871 l 0,28.43883 -5.943,0 0,-26.04567 c 0,-2.28678 -0.7046,-4.09494 -2.114,-5.42451 -1.3827,-1.32951 -3.2573,-1.99428 -5.6239,-1.99431 -3.0846,3e-5 -5.5574,1.15673 -7.4188,3.47009 -1.8614,2.31343 -2.7921,5.38466 -2.7921,9.2137 l 0,20.7807 -6.0228,0 0,-37.61265"
       id="path3792"
       inkscape:export-filename="C:\Documents and Settings\lukin\Bureau\cosider.png"
       inkscape:export-xdpi="90"
       inkscape:export-ydpi="90" />
    <path
       inkscape:export-ydpi="90"
       inkscape:export-xdpi="90"
       inkscape:export-filename="C:\Documents and Settings\lukin\Bureau\cosider.png"
       id="path3794"
       d="m 891.61039,264.14384 c 0,-1.6486 0.10631,-3.29722 0.31913,-4.94589 0.21272,-1.67518 0.5717,-3.43017 1.07693,-5.26497 0.53185,-1.86131 1.19657,-3.603 1.99431,-5.22508 0.79773,-1.64859 1.82145,-3.23074 3.07123,-4.74645 1.27635,-1.51563 2.71222,-2.80528 4.30771,-3.86897 1.622,-1.09016 3.54983,-1.95436 5.78346,-2.59258 2.26024,-0.66469 4.71985,-0.99714 7.37896,-0.99714 11.40739,6e-5 18.13489,5.70378 20.18244,17.11117 l -6.86046,0 c -0.74457,-3.77585 -2.24698,-6.58118 -4.50712,-8.41598 -2.26026,-1.86131 -5.46445,-2.79198 -9.6126,-2.79204 -5.05224,6e-5 -9.05415,1.94118 -12.00572,5.82338 -2.95157,3.85571 -4.42737,9.13398 -4.42737,15.8348 0,6.56795 1.52899,11.77975 4.58693,15.63538 3.08449,3.85567 7.21935,5.7835 12.40459,5.7835 4.30767,0 7.60493,-1.20987 9.89177,-3.62964 2.31336,-2.44634 3.88221,-6.19564 4.70657,-11.2479 l 6.90028,0 c -1.62205,13.82721 -8.80158,20.7408 -21.53851,20.7408 -3.03138,0 -5.79681,-0.42544 -8.29632,-1.27635 -2.49956,-0.82436 -4.58692,-1.95442 -6.26213,-3.39033 -1.67523,-1.46249 -3.12442,-3.08452 -4.34757,-4.86612 -1.2232,-1.80815 -2.16718,-3.76257 -2.83194,-5.86324 -0.66479,-2.10067 -1.1567,-4.10826 -1.47579,-6.02282 -0.29251,-1.9411 -0.43876,-3.86894 -0.43876,-5.7835 m 67.99717,-13.12254 c 5.39796,3e-5 9.58597,1.79491 12.56413,5.38463 3.00475,3.56319 4.50712,8.58885 4.5072,15.07696 -8e-5,6.16908 -1.51574,11.02189 -4.54707,14.55845 -3.03139,3.53658 -7.17954,5.30486 -12.44445,5.30486 -5.34479,0 -9.51952,-1.78158 -12.52427,-5.34474 -3.00482,-3.56316 -4.50719,-8.49574 -4.50719,-14.79777 0,-6.30199 1.50237,-11.23457 4.50719,-14.79776 3.03133,-3.58972 7.17948,-5.3846 12.44446,-5.38463 m 7.93734,9.45302 c -1.88799,-2.63246 -4.50712,-3.9487 -7.85753,-3.94874 -3.3505,4e-5 -5.99627,1.31628 -7.93742,3.94874 -1.91448,2.63251 -2.87177,6.20897 -2.87177,10.72937 0,4.54704 0.9573,8.1235 2.87177,10.72939 1.94115,2.60589 4.58692,3.90884 7.93742,3.90883 3.29718,10e-6 5.90309,-1.28964 7.81767,-3.86895 1.94106,-2.60589 2.91163,-6.11586 2.91163,-10.52996 0,-4.70654 -0.95729,-8.36276 -2.87177,-10.96868 m 17.3679,-8.3761 5.50435,0 0,6.30202 c 1.67521,-2.63246 3.47002,-4.5204 5.38458,-5.66383 1.94115,-1.14338 4.32095,-1.71508 7.13965,-1.71511 3.6163,3e-5 6.5015,0.93066 8.6553,2.79203 2.1539,1.86138 3.2307,4.34762 3.2307,7.45872 l 0,28.43882 -5.9429,0 0,-26.04566 c -10e-5,-2.28678 -0.7048,-4.09495 -2.114,-5.42452 -1.3828,-1.3295 -3.2574,-1.99427 -5.6239,-1.9943 -3.0846,3e-5 -5.55755,1.15673 -7.41887,3.47008 -1.86143,2.31343 -2.79205,5.38467 -2.79205,9.21371 l 0,20.78069 -6.02286,0 0,-37.61265 m 43.57318,26.40464 c 0.1064,0.82436 0.2526,1.55557 0.4387,2.19375 0.1861,0.61163 0.4919,1.26306 0.9174,1.95441 0.4255,0.69142 0.9439,1.24977 1.5556,1.67522 0.6381,0.42544 1.4891,0.78441 2.5527,1.07693 1.0636,0.2925 2.3001,0.43875 3.7094,0.43875 2.6058,10e-6 4.7198,-0.53185 6.3419,-1.59544 1.622,-1.09022 2.4331,-2.52611 2.4331,-4.30771 0,-1.35611 -0.4521,-2.43304 -1.3562,-3.23078 -0.9041,-0.82425 -2.4065,-1.50235 -4.5071,-2.03419 l -5.5442,-1.31624 c -4.4406,-1.06361 -7.5518,-2.40645 -9.3334,-4.0285 -1.7549,-1.62202 -2.6325,-3.89554 -2.6325,-6.82054 0,-3.48336 1.3163,-6.26209 3.9488,-8.3362 2.6324,-2.10064 6.1292,-3.15098 10.4901,-3.15101 4.3608,3e-5 7.7113,0.99724 10.0513,2.99146 2.3665,1.99434 3.5631,4.85284 3.5898,8.57552 l -6.3021,0 c -0.1596,-4.04177 -2.6591,-6.06266 -7.4986,-6.06269 -2.4464,3e-5 -4.4008,0.51853 -5.8632,1.55556 -1.4359,1.03708 -2.1539,2.41979 -2.1539,4.14815 0,1.30298 0.5451,2.3799 1.6353,3.23079 1.0903,0.85088 2.8586,1.56888 5.3049,2.15385 l 5.7436,1.31624 c 3.7493,0.93066 6.4615,2.22035 8.1368,3.86896 1.6751,1.64864 2.5127,3.86898 2.5128,6.661 -10e-5,3.61634 -1.4093,6.50144 -4.2279,8.65529 -2.7921,2.15384 -6.5547,3.23077 -11.2878,3.23077 -4.9193,0 -8.6155,-1.05029 -11.0883,-3.151 -2.4731,-2.10066 -3.7759,-5.33144 -3.9089,-9.69234 l 6.3419,0 m 45.3506,-26.40464 0,4.86612 -6.1824,0 0,25.76646 c 0,1.32954 0.226,2.23362 0.6781,2.71225 0.452,0.45207 1.3295,0.6781 2.6324,0.6781 1.303,0 2.2603,-0.093 2.8719,-0.27918 l 0,5.02565 c -1.7816,0.31913 -3.4036,0.47859 -4.8661,0.47859 -2.34,0 -4.1349,-0.51854 -5.3846,-1.55556 -1.2233,-1.01045 -1.8348,-2.47294 -1.8348,-4.38747 l 0,-28.43883 -5.1453,0 0,-4.86611 5.1453,0 0,-10.33052 5.9031,0 0,10.33052 6.1824,0 m 24.7382,5.26496 c -1.9678,0.0264 -3.6298,0.22604 -4.9858,0.59833 -1.3562,0.34576 -2.606,0.97061 -3.7493,1.87465 -1.1168,0.90414 -1.9544,2.22035 -2.5129,3.94873 -0.5319,1.70184 -0.7976,3.8291 -0.7976,6.38178 l 0,19.54423 -6.0229,0 0,-37.61265 5.5044,0 0,6.78065 c 1.7283,-2.79201 3.377,-4.79961 4.9458,-6.02282 1.5954,-1.22313 3.377,-1.83473 5.3448,-1.83476 0.3722,3e-5 1.13,0.0666 2.2735,0.19941 l 0,6.14246 m 35.4051,32.34769 -5.4245,0 0,-5.26497 c -1.755,2.49952 -3.5898,4.26781 -5.5042,5.30485 -1.9146,1.06363 -4.2546,1.59544 -7.02,1.59544 -3.6696,0 -6.5813,-0.93066 -8.735,-2.79203 -2.154,-1.86134 -3.2309,-4.34758 -3.2309,-7.45871 l 0,-28.99723 5.9032,0 0,26.60406 c 0,2.26022 0.7046,4.0684 2.114,5.42452 1.4093,1.32954 3.2972,1.9943 5.6638,1.9943 3.1111,0 5.5974,-1.15669 7.4587,-3.47008 1.8613,-2.31339 2.792,-5.38463 2.792,-9.21371 l 0,-21.33909 5.9829,0 0,37.61265 m 38.9863,-24.96874 -6.0228,0 c -0.3457,-2.63246 -1.2897,-4.65336 -2.8319,-6.0627 -1.5158,-1.43587 -3.5366,-2.15382 -6.0627,-2.15385 -3.2441,3e-5 -5.7968,1.32957 -7.6581,3.98861 -1.8348,2.65911 -2.7522,6.32864 -2.7522,11.00859 0,4.44067 0.944,7.93735 2.8319,10.49005 1.888,2.55272 4.4805,3.82908 7.7778,3.82907 5.0788,10e-6 8.1367,-3.01805 9.1738,-9.05415 l 6.0228,0 c -0.3724,4.60022 -1.9146,8.17666 -4.6268,10.72938 -2.6856,2.55271 -6.2754,3.82906 -10.7692,3.82906 -5.1055,0 -9.1606,-1.78158 -12.1653,-5.34474 -3.0048,-3.58975 -4.5072,-8.41597 -4.5072,-14.47867 0,-6.22221 1.5157,-11.19469 4.5471,-14.91743 3.0579,-3.72267 7.1263,-5.58403 12.2052,-5.58406 4.3608,3e-5 7.8309,1.18333 10.4103,3.54987 2.6058,2.34002 4.0816,5.73033 4.4273,10.17097 m 20.3419,-12.64391 0,4.86611 -6.1823,0 0,25.76646 c 0,1.32954 0.226,2.23362 0.6781,2.71225 0.452,0.45207 1.3295,0.67811 2.6325,0.67811 1.3029,0 2.2601,-0.093 2.8717,-0.27919 l 0,5.02565 c -1.7815,0.31913 -3.4035,0.47859 -4.866,0.47859 -2.34,0 -4.1349,-0.51854 -5.3847,-1.55556 -1.2231,-1.01045 -1.8347,-2.47294 -1.8347,-4.38747 l 0,-28.43883 -5.1454,0 0,-4.86611 5.1454,0 0,-10.33051 5.9031,0 0,10.33051 6.1823,0 m 12.4533,-14.75788 0,7.57836 -6.0229,0 0,-7.57836 6.0229,0 m 0.04,14.75788 0,37.61265 -5.9829,0 0,-37.61265 5.9829,0 m 24.7207,-1.07693 c 5.3979,3e-5 9.5859,1.79491 12.5641,5.38463 3.0048,3.56319 4.507,8.58885 4.5071,15.07697 -10e-5,6.16907 -1.5157,11.02188 -4.5469,14.55844 -3.0315,3.53658 -7.1796,5.30486 -12.4446,5.30486 -5.3447,0 -9.5195,-1.78158 -12.5243,-5.34474 -3.0047,-3.56315 -4.5071,-8.49574 -4.5071,-14.79776 0,-6.302 1.5024,-11.23458 4.5071,-14.79777 3.0314,-3.58972 7.1796,-5.3846 12.4446,-5.38463 m 7.9373,9.45302 c -1.888,-2.63246 -4.5072,-3.9487 -7.8576,-3.94873 -3.3504,3e-5 -5.9962,1.31627 -7.9373,3.94873 -1.9146,2.63251 -2.8718,6.20897 -2.8718,10.72938 0,4.54703 0.9572,8.12349 2.8718,10.72938 1.9411,2.60589 4.5869,3.90884 7.9373,3.90883 3.2973,1e-5 5.9032,-1.28964 7.8177,-3.86895 1.9411,-2.60589 2.9117,-6.11586 2.9117,-10.52996 0,-4.70653 -0.9573,-8.36275 -2.8718,-10.96868 m 17.3679,-8.37609 5.5043,0 0,6.30201 c 1.6752,-2.63246 3.4701,-4.52039 5.3847,-5.66383 1.9411,-1.14338 4.3209,-1.71508 7.1396,-1.71511 3.6163,3e-5 6.5014,0.93066 8.6552,2.79204 2.1539,1.86138 3.2308,4.34761 3.2308,7.45871 l 0,28.43883 -5.943,0 0,-26.04567 c 0,-2.28678 -0.7046,-4.09494 -2.114,-5.42451 -1.3827,-1.32951 -3.2573,-1.99428 -5.6239,-1.99431 -3.0846,3e-5 -5.5574,1.15673 -7.4188,3.47009 -1.8614,2.31343 -2.7921,5.38466 -2.7921,9.2137 l 0,20.7807 -6.0228,0 0,-37.61265"
       style="font-size:26.90761566px;font-style:normal;font-variant:normal;font-weight:normal;font-stretch:normal;text-align:start;line-height:125%;writing-mode:lr-tb;text-anchor:start;fill:#ff0000;fill-opacity:1;stroke:#ffffff;stroke-width:0.69200003;stroke-linecap:butt;stroke-linejoin:miter;stroke-miterlimit:4;stroke-opacity:1;stroke-dasharray:none;font-family:Metal;-inkscape-font-specification:Metal" />
    <path
       inkscape:export-ydpi="90"
       inkscape:export-xdpi="90"
       inkscape:export-filename="C:\Documents and Settings\lukin\Bureau\cosider.png"
       sodipodi:nodetypes="cc"
       id="path3796"
       d="M 813.06345,326.34391 610.91626,510.29786"
       style="fill:#ff0000;fill-opacity:1;stroke:#ff0000;stroke-width:8.39999962;stroke-linecap:round;stroke-miterlimit:4;stroke-opacity:1;stroke-dasharray:none;stroke-dashoffset:0" />
  </g>
</svg>
