<?xml version="1.0" encoding="UTF-8" standalone="no"?>
<!-- Created with Inkscape (http://www.inkscape.org/) -->

<svg
   xmlns:dc="http://purl.org/dc/elements/1.1/"
   xmlns:cc="http://creativecommons.org/ns#"
   xmlns:rdf="http://www.w3.org/1999/02/22-rdf-syntax-ns#"
   xmlns:svg="http://www.w3.org/2000/svg"
   xmlns="http://www.w3.org/2000/svg"
   xmlns:sodipodi="http://sodipodi.sourceforge.net/DTD/sodipodi-0.dtd"
   xmlns:inkscape="http://www.inkscape.org/namespaces/inkscape"
   width="32"
   height="32"
   viewBox="0 0 8.4666667 8.4666667"
   version="1.1"
   id="svg8"
   inkscape:version="0.92.2 5c3e80d, 2017-08-06"
   sodipodi:docname="mail.svg"
   inkscape:export-filename="/home/hbendali/www/gcom/img/notification.png"
   inkscape:export-xdpi="96"
   inkscape:export-ydpi="96">
  <defs
     id="defs2" />
  <sodipodi:namedview
     id="base"
     pagecolor="#ffffff"
     bordercolor="#666666"
     borderopacity="1.0"
     inkscape:pageopacity="0.0"
     inkscape:pageshadow="2"
     inkscape:zoom="1"
     inkscape:cx="-81.670164"
     inkscape:cy="-51.031517"
     inkscape:document-units="px"
     inkscape:current-layer="layer1"
     showgrid="false"
     units="px"
     inkscape:window-width="1311"
     inkscape:window-height="717"
     inkscape:window-x="55"
     inkscape:window-y="25"
     inkscape:window-maximized="1" />
  <metadata
     id="metadata5">
    <rdf:RDF>
      <cc:Work
         rdf:about="">
        <dc:format>image/svg+xml</dc:format>
        <dc:type
           rdf:resource="http://purl.org/dc/dcmitype/StillImage" />
        <dc:title></dc:title>
      </cc:Work>
    </rdf:RDF>
  </metadata>
  <g
     inkscape:label="Layer 1"
     inkscape:groupmode="layer"
     id="layer1"
     transform="translate(0,-288.53331)">
    <rect
       style="fill:#ff0000;fill-opacity:1;stroke:#ffffff;stroke-width:0.12451084;stroke-linecap:round;stroke-linejoin:bevel;stroke-miterlimit:4;stroke-dasharray:none;stroke-opacity:1"
       id="rect4700"
       width="42.542007"
       height="28.107643"
       x="-44.100571"
       y="272.2308"
       ry="0.61698788" />
    <rect
       style="fill:#ff0000;fill-opacity:1;stroke:#ffffff;stroke-width:0.17102246;stroke-linecap:round;stroke-linejoin:bevel;stroke-miterlimit:4;stroke-dasharray:none;stroke-opacity:1"
       id="rect4688"
       width="72.92643"
       height="25.352072"
       x="-28.168402"
       y="245.58716"
       ry="0.53055382" />
    <g
       id="g4698"
       style="fill:#800000;stroke:#800000;stroke-width:0.05291667;stroke-miterlimit:4;stroke-dasharray:none"
       transform="matrix(3.1897929,-0.9184495,0.9184495,3.1897929,-306.21908,-595.08004)"
       inkscape:export-xdpi="96"
       inkscape:export-ydpi="96">
      <path
         sodipodi:nodetypes="sscsssssccscsssccccccsscccscccccccccsssscccccssccccscccccsssccc"
         inkscape:connector-curvature="0"
         id="rect4620"
         d="m 1.8364563,290.17332 c -0.217947,0 -0.3973536,0.1794 -0.3973536,0.39734 v 1.77008 c -0.3202802,0.0714 -0.56123078,0.35711 -0.56123078,0.69845 v 2.72767 c 0,0.39489 0.32183848,0.71672 0.71671708,0.71672 h 4.4676344 c 0.3948785,0 0.716717,-0.32183 0.716717,-0.71672 v -1.36185 c 0.8108169,-0.2035 1.413691,-0.93651 1.4136896,-1.80957 1.7e-6,-1.02978 -0.8375368,-1.86731 -1.8673142,-1.86731 -0.026279,0 -0.051975,0.002 -0.07799,0.004 v -0.16092 c 0,-0.21795 -0.1794064,-0.39735 -0.3973536,-0.39735 z m 4.4888595,0.80852 c 0.8931936,0 1.6155763,0.72041 1.6155747,1.6136 1.4e-6,0.77833 -0.5488085,1.42496 -1.2809095,1.57855 l -0.020731,0.005 c -0.025639,0.005 -0.051929,0.008 -0.07799,0.0118 -0.025116,0.004 -0.05026,0.009 -0.075522,0.0109 -0.052783,0.005 -0.1062601,0.008 -0.160422,0.008 -0.1674739,0 -0.3290498,-0.025 -0.480773,-0.072 -0.6574674,-0.20388 -1.1333223,-0.8158 -1.1333211,-1.54152 0,-0.0488 0.00319,-0.0969 0.0074,-0.14463 l 0.00296,-0.0351 c 0.089043,-0.80813 0.7713286,-1.43392 1.6037283,-1.43392 z m -1.8668207,1.59336 c -7.36e-5,0.007 -9.838e-4,0.0134 -9.838e-4,0.0203 -6e-7,0.19308 0.029763,0.3795 0.084407,0.55481 0.03643,0.11689 0.084101,0.22884 0.1416652,0.33467 0.030199,0.0555 0.066199,0.10699 0.101683,0.15894 l -0.905275,0.64021 -2.1881585,-1.54351 -1.6e-6,-0.29172 v -1.87818 c 0,-0.0824 0.062155,-0.14462 0.144627,-0.14462 h 4.013516 c 0.082473,0 0.1446269,0.0622 0.1446269,0.14462 v 0.18757 c -0.7834846,0.14099 -1.39804,0.77245 -1.5148791,1.56425 z m -3.2104181,0.16141 2.4122561,1.70295 -2.3707932,1.67628 c -0.096989,-0.0845 -0.1589413,-0.20795 -0.1589413,-0.34898 v -2.72767 c 0,-0.11834 0.046142,-0.22175 0.1174784,-0.30258 z m 3.6941528,1.10617 c 0.021487,0.0238 0.040512,0.0499 0.063182,0.0726 0.1268033,0.1268 0.271674,0.23548 0.4304248,0.32183 0.1058346,0.0576 0.2177847,0.10523 0.3346654,0.14166 0.116881,0.0364 0.2383826,0.0618 0.3637881,0.0745 0.062861,0.007 0.1264963,0.01 0.1910259,0.01 h 5.055e-4 5.055e-4 c 0.067618,-4e-5 0.1341342,-0.004 0.1999108,-0.0109 v 1.31497 c 0,0.25925 -0.2047458,0.46399 -0.4639905,0.46399 H 1.5946128 c -0.00865,0 -0.01665,-0.002 -0.025174,-0.003 z"
         style="color:#000000;font-style:normal;font-variant:normal;font-weight:normal;font-stretch:normal;font-size:medium;line-height:normal;font-family:sans-serif;font-variant-ligatures:normal;font-variant-position:normal;font-variant-caps:normal;font-variant-numeric:normal;font-variant-alternates:normal;font-feature-settings:normal;text-indent:0;text-align:start;text-decoration:none;text-decoration-line:none;text-decoration-style:solid;text-decoration-color:#000000;letter-spacing:normal;word-spacing:normal;text-transform:none;writing-mode:lr-tb;direction:ltr;text-orientation:mixed;dominant-baseline:auto;baseline-shift:baseline;text-anchor:start;white-space:normal;shape-padding:0;clip-rule:nonzero;display:inline;overflow:visible;visibility:visible;opacity:1;isolation:auto;mix-blend-mode:normal;color-interpolation:sRGB;color-interpolation-filters:linearRGB;solid-color:#000000;solid-opacity:1;vector-effect:none;fill:#800000;fill-opacity:1;fill-rule:nonzero;stroke:#800000;stroke-width:0.05291667;stroke-linecap:butt;stroke-linejoin:miter;stroke-miterlimit:4;stroke-dasharray:none;stroke-dashoffset:0;stroke-opacity:1;color-rendering:auto;image-rendering:auto;shape-rendering:auto;text-rendering:auto;enable-background:accumulate" />
      <path
         inkscape:connector-curvature="0"
         id="path4630"
         d="m 0.70413008,289.2337 a 0.12637595,0.12637595 0 0 0 -0.0690276,0.21827 L 1.0716529,289.868 a 0.12670319,0.12670319 0 1 0 0.1735009,-0.18469 l -0.43655052,-0.41416 a 0.12637595,0.12637595 0 0 0 -0.10447362,-0.0354 z"
         style="color:#000000;font-style:normal;font-variant:normal;font-weight:normal;font-stretch:normal;font-size:medium;line-height:normal;font-family:sans-serif;font-variant-ligatures:normal;font-variant-position:normal;font-variant-caps:normal;font-variant-numeric:normal;font-variant-alternates:normal;font-feature-settings:normal;text-indent:0;text-align:start;text-decoration:none;text-decoration-line:none;text-decoration-style:solid;text-decoration-color:#000000;letter-spacing:normal;word-spacing:normal;text-transform:none;writing-mode:lr-tb;direction:ltr;text-orientation:mixed;dominant-baseline:auto;baseline-shift:baseline;text-anchor:start;white-space:normal;shape-padding:0;clip-rule:nonzero;display:inline;overflow:visible;visibility:visible;opacity:1;isolation:auto;mix-blend-mode:normal;color-interpolation:sRGB;color-interpolation-filters:linearRGB;solid-color:#000000;solid-opacity:1;vector-effect:none;fill:#800000;fill-opacity:1;fill-rule:nonzero;stroke:#800000;stroke-width:0.05291667;stroke-linecap:round;stroke-linejoin:miter;stroke-miterlimit:4;stroke-dasharray:none;stroke-dashoffset:0;stroke-opacity:1;color-rendering:auto;image-rendering:auto;shape-rendering:auto;text-rendering:auto;enable-background:accumulate" />
      <path
         inkscape:connector-curvature="0"
         id="path4632"
         d="m 0.32914455,290.24485 a 0.12637595,0.12637595 0 0 0 0.009361,0.25185 l 0.57273881,0.006 a 0.12637595,0.12637595 0 1 0 0.003735,-0.25186 l -0.572739,-0.006 a 0.12637595,0.12637595 0 0 0 -0.0130574,0 z"
         style="color:#000000;font-style:normal;font-variant:normal;font-weight:normal;font-stretch:normal;font-size:medium;line-height:normal;font-family:sans-serif;font-variant-ligatures:normal;font-variant-position:normal;font-variant-caps:normal;font-variant-numeric:normal;font-variant-alternates:normal;font-feature-settings:normal;text-indent:0;text-align:start;text-decoration:none;text-decoration-line:none;text-decoration-style:solid;text-decoration-color:#000000;letter-spacing:normal;word-spacing:normal;text-transform:none;writing-mode:lr-tb;direction:ltr;text-orientation:mixed;dominant-baseline:auto;baseline-shift:baseline;text-anchor:start;white-space:normal;shape-padding:0;clip-rule:nonzero;display:inline;overflow:visible;visibility:visible;opacity:1;isolation:auto;mix-blend-mode:normal;color-interpolation:sRGB;color-interpolation-filters:linearRGB;solid-color:#000000;solid-opacity:1;vector-effect:none;fill:#800000;fill-opacity:1;fill-rule:nonzero;stroke:#800000;stroke-width:0.05291667;stroke-linecap:round;stroke-linejoin:miter;stroke-miterlimit:4;stroke-dasharray:none;stroke-dashoffset:0;stroke-opacity:1;color-rendering:auto;image-rendering:auto;shape-rendering:auto;text-rendering:auto;enable-background:accumulate" />
      <path
         inkscape:connector-curvature="0"
         id="path4634"
         d="m 1.8589367,288.89976 a 0.12637595,0.12637595 0 0 0 -0.1249953,0.13059 l 0.00373,0.57834 a 0.12686479,0.12686479 0 1 0 0.2537217,-0.002 l -0.00373,-0.57834 a 0.12637595,0.12637595 0 0 0 -0.1287264,-0.12872 z"
         style="color:#000000;font-style:normal;font-variant:normal;font-weight:normal;font-stretch:normal;font-size:medium;line-height:normal;font-family:sans-serif;font-variant-ligatures:normal;font-variant-position:normal;font-variant-caps:normal;font-variant-numeric:normal;font-variant-alternates:normal;font-feature-settings:normal;text-indent:0;text-align:start;text-decoration:none;text-decoration-line:none;text-decoration-style:solid;text-decoration-color:#000000;letter-spacing:normal;word-spacing:normal;text-transform:none;writing-mode:lr-tb;direction:ltr;text-orientation:mixed;dominant-baseline:auto;baseline-shift:baseline;text-anchor:start;white-space:normal;shape-padding:0;clip-rule:nonzero;display:inline;overflow:visible;visibility:visible;opacity:1;isolation:auto;mix-blend-mode:normal;color-interpolation:sRGB;color-interpolation-filters:linearRGB;solid-color:#000000;solid-opacity:1;vector-effect:none;fill:#800000;fill-opacity:1;fill-rule:nonzero;stroke:#800000;stroke-width:0.05291667;stroke-linecap:round;stroke-linejoin:miter;stroke-miterlimit:4;stroke-dasharray:none;stroke-dashoffset:0;stroke-opacity:1;color-rendering:auto;image-rendering:auto;shape-rendering:auto;text-rendering:auto;enable-background:accumulate" />
      <path
         inkscape:connector-curvature="0"
         id="path4636"
         d="m 2.2768311,291.20564 a 0.12703113,0.12703113 0 0 0 0.013059,0.25372 H 3.092098 a 0.1268632,0.1268632 0 1 0 0,-0.25372 H 2.2898903 a 0.12637595,0.12637595 0 0 0 -0.013059,0 z"
         style="color:#000000;font-style:normal;font-variant:normal;font-weight:normal;font-stretch:normal;font-size:medium;line-height:normal;font-family:sans-serif;font-variant-ligatures:normal;font-variant-position:normal;font-variant-caps:normal;font-variant-numeric:normal;font-variant-alternates:normal;font-feature-settings:normal;text-indent:0;text-align:start;text-decoration:none;text-decoration-line:none;text-decoration-style:solid;text-decoration-color:#000000;letter-spacing:normal;word-spacing:normal;text-transform:none;writing-mode:lr-tb;direction:ltr;text-orientation:mixed;dominant-baseline:auto;baseline-shift:baseline;text-anchor:start;white-space:normal;shape-padding:0;clip-rule:nonzero;display:inline;overflow:visible;visibility:visible;opacity:1;isolation:auto;mix-blend-mode:normal;color-interpolation:sRGB;color-interpolation-filters:linearRGB;solid-color:#000000;solid-opacity:1;vector-effect:none;fill:#800000;fill-opacity:1;fill-rule:nonzero;stroke:#800000;stroke-width:0.05291667;stroke-linecap:round;stroke-linejoin:miter;stroke-miterlimit:4;stroke-dasharray:none;stroke-dashoffset:0;stroke-opacity:1;color-rendering:auto;image-rendering:auto;shape-rendering:auto;text-rendering:auto;enable-background:accumulate" />
      <path
         inkscape:connector-curvature="0"
         id="path4638"
         d="m 2.2525784,291.94068 a 0.12637595,0.12637595 0 0 0 0.013059,0.25185 h 1.535389 a 0.12637595,0.12637595 0 1 0 0,-0.25185 h -1.535389 a 0.12637595,0.12637595 0 0 0 -0.013059,0 z"
         style="color:#000000;font-style:normal;font-variant:normal;font-weight:normal;font-stretch:normal;font-size:medium;line-height:normal;font-family:sans-serif;font-variant-ligatures:normal;font-variant-position:normal;font-variant-caps:normal;font-variant-numeric:normal;font-variant-alternates:normal;font-feature-settings:normal;text-indent:0;text-align:start;text-decoration:none;text-decoration-line:none;text-decoration-style:solid;text-decoration-color:#000000;letter-spacing:normal;word-spacing:normal;text-transform:none;writing-mode:lr-tb;direction:ltr;text-orientation:mixed;dominant-baseline:auto;baseline-shift:baseline;text-anchor:start;white-space:normal;shape-padding:0;clip-rule:nonzero;display:inline;overflow:visible;visibility:visible;opacity:1;isolation:auto;mix-blend-mode:normal;color-interpolation:sRGB;color-interpolation-filters:linearRGB;solid-color:#000000;solid-opacity:1;vector-effect:none;fill:#800000;fill-opacity:1;fill-rule:nonzero;stroke:#800000;stroke-width:0.05291667;stroke-linecap:round;stroke-linejoin:miter;stroke-miterlimit:4;stroke-dasharray:none;stroke-dashoffset:0;stroke-opacity:1;color-rendering:auto;image-rendering:auto;shape-rendering:auto;text-rendering:auto;enable-background:accumulate" />
      <path
         inkscape:connector-curvature="0"
         id="path4640"
         d="m 6.5117436,293.2037 a 0.12637595,0.12637595 0 0 0 -0.1231296,0.12872 c -3e-7,0.0319 -0.024073,0.0559 -0.055968,0.056 -0.031896,6e-5 -0.055845,-0.0241 -0.055968,-0.056 a 0.12637595,0.12637595 0 1 0 -0.251856,0.002 c 6.48e-4,0.1683 0.1395158,0.30628 0.307824,0.30595 0.168305,-3.2e-4 0.3078227,-0.13951 0.3078241,-0.30782 a 0.12637595,0.12637595 0 0 0 -0.128727,-0.12882 z"
         style="color:#000000;font-style:normal;font-variant:normal;font-weight:normal;font-stretch:normal;font-size:medium;line-height:normal;font-family:sans-serif;font-variant-ligatures:normal;font-variant-position:normal;font-variant-caps:normal;font-variant-numeric:normal;font-variant-alternates:normal;font-feature-settings:normal;text-indent:0;text-align:start;text-decoration:none;text-decoration-line:none;text-decoration-style:solid;text-decoration-color:#000000;letter-spacing:normal;word-spacing:normal;text-transform:none;writing-mode:lr-tb;direction:ltr;text-orientation:mixed;dominant-baseline:auto;baseline-shift:baseline;text-anchor:start;white-space:normal;shape-padding:0;clip-rule:nonzero;display:inline;overflow:visible;visibility:visible;opacity:1;isolation:auto;mix-blend-mode:normal;color-interpolation:sRGB;color-interpolation-filters:linearRGB;solid-color:#000000;solid-opacity:1;vector-effect:none;fill:#800000;fill-opacity:1;fill-rule:nonzero;stroke:#800000;stroke-width:0.05291667;stroke-linecap:round;stroke-linejoin:miter;stroke-miterlimit:4;stroke-dasharray:none;stroke-dashoffset:0;stroke-opacity:1;color-rendering:auto;image-rendering:auto;shape-rendering:auto;text-rendering:auto;enable-background:accumulate" />
      <path
         sodipodi:nodetypes="cccccccccccccccccccccczcsccccccccz"
         inkscape:connector-curvature="0"
         id="path4652"
         d="m 6.3144564,291.57022 c -0.051002,0.004 -0.090064,0.0271 -0.1189592,0.0483 -0.026304,0.0194 -0.049916,0.0417 -0.078483,0.0671 -0.079184,0.0456 -0.1907571,0.0946 -0.2922152,0.19547 -0.1054486,0.10489 -0.186448,0.26617 -0.1969491,0.4946 -0.012458,0.27099 -0.0067,0.381 -0.011353,0.42351 -0.00233,0.0213 -0.00379,0.0262 -0.015302,0.0514 -0.011505,0.0252 -0.034215,0.0665 -0.069599,0.13426 l 0.1120486,0.1851 h 0.6969728 0.00198 0.6969729 l 0.1120486,-0.1851 c -0.035383,-0.0677 -0.058094,-0.10907 -0.069599,-0.13426 -0.011505,-0.0252 -0.012972,-0.0301 -0.015301,-0.0514 -0.00466,-0.0425 0.00111,-0.15252 -0.011353,-0.42351 -0.011082,-0.24108 -0.1017008,-0.4074 -0.2147191,-0.51187 -0.1111813,-0.10278 -0.2311476,-0.1509 -0.306036,-0.19794 l -0.00494,-0.004 c -0.032569,-0.0231 -0.058992,-0.0423 -0.08885,-0.0592 -0.031541,-0.0179 -0.07536,-0.0367 -0.1263634,-0.0331 z m 0.01777,0.26359 c 0.054637,0 0.2373909,0.15271 0.3366419,0.21561 0.071113,0.0657 0.1250717,0.14896 0.1337675,0.33812 0.012119,0.26363 0.00317,0.35117 0.012834,0.43931 0.0034,0.031 0.015092,0.0606 0.025668,0.0904 h -0.4985427 -0.00198 -0.498543 c 0.010575,-0.0297 0.022269,-0.0593 0.025668,-0.0904 0.00966,-0.0882 7.142e-4,-0.17568 0.012834,-0.43931 0.00824,-0.17924 0.057561,-0.26276 0.1224145,-0.32726 0.2211228,-0.19133 0.2745988,-0.22647 0.3292356,-0.22647 z"
         style="color:#000000;font-style:normal;font-variant:normal;font-weight:normal;font-stretch:normal;font-size:medium;line-height:normal;font-family:sans-serif;font-variant-ligatures:normal;font-variant-position:normal;font-variant-caps:normal;font-variant-numeric:normal;font-variant-alternates:normal;font-feature-settings:normal;text-indent:0;text-align:start;text-decoration:none;text-decoration-line:none;text-decoration-style:solid;text-decoration-color:#000000;letter-spacing:normal;word-spacing:normal;text-transform:none;writing-mode:lr-tb;direction:ltr;text-orientation:mixed;dominant-baseline:auto;baseline-shift:baseline;text-anchor:start;white-space:normal;shape-padding:0;clip-rule:nonzero;display:inline;overflow:visible;visibility:visible;opacity:1;isolation:auto;mix-blend-mode:normal;color-interpolation:sRGB;color-interpolation-filters:linearRGB;solid-color:#000000;solid-opacity:1;vector-effect:none;fill:#800000;fill-opacity:1;fill-rule:nonzero;stroke:#800000;stroke-width:0.05291667;stroke-linecap:round;stroke-linejoin:bevel;stroke-miterlimit:4;stroke-dasharray:none;stroke-dashoffset:0;stroke-opacity:1;color-rendering:auto;image-rendering:auto;shape-rendering:auto;text-rendering:auto;enable-background:accumulate" />
    </g>
    <path
       id="path4750"
       d="m -36.152343,284.52026 c -0.137127,0 -0.249322,0.11227 -0.249322,0.24933 v 0.99729 h -2.36856 c -1.031071,0 -1.869916,0.83884 -1.869916,1.86992 v 2.64077 c -0.144731,0.0516 -0.249322,0.18878 -0.249322,0.3511 0,0.20618 0.167793,0.37398 0.373983,0.37398 h 2.416282 l 0.145843,0.29193 c 0.06371,0.1274 0.192053,0.20671 0.334541,0.20671 h 0.21986 v 0.87262 c 0,0.0689 0.05573,0.12467 0.124661,0.12467 0.06894,0 0.124661,-0.0558 0.124661,-0.12467 v -0.87262 h 0.747967 v 0.87262 c 0,0.0689 0.05572,0.12467 0.124661,0.12467 0.06894,0 0.124661,-0.0558 0.124661,-0.12467 v -0.87262 h 0.219861 c 0.142612,0 0.270714,-0.0793 0.33454,-0.20671 l 0.145844,-0.29193 h 2.166959 c 0.206189,0 0.373983,-0.1678 0.373983,-0.37398 0,-0.16232 -0.10459,-0.29949 -0.249322,-0.3511 v -2.64077 c 0,-1.03095 -0.838969,-1.86992 -1.869915,-1.86992 h -0.623306 v -0.37155 l 0.54734,-0.1096 c 0.115935,-0.0237 0.200626,-0.12602 0.200626,-0.24445 v -0.27172 c 0,-0.13712 -0.112194,-0.24933 -0.249322,-0.24933 z m 0,0.24933 h 0.997288 v 0.27173 l -0.54734,0.10983 c -0.115934,0.0237 -0.200626,0.12578 -0.200626,0.2442 v 0.37155 0.24933 1.39123 c -0.08103,-0.0199 -0.168292,-0.0199 -0.249322,0 v -1.39123 -0.24933 z m -2.617882,1.24661 c 0.764671,0 1.405768,0.53305 1.575306,1.24662 h -2.323272 c -0.20619,0 -0.373983,0.16778 -0.373983,0.37398 v 2.49322 c 0,0.0438 0.0089,0.0855 0.02289,0.12465 h -0.521533 v -2.61787 c 0,-0.89358 0.727023,-1.6206 1.620594,-1.6206 z m 0.928871,0 h 1.439689 v 1.54074 c -0.08103,0.091 -0.124661,0.20702 -0.124661,0.32917 0,0.13339 0.05235,0.25807 0.145844,0.35281 0.09474,0.0935 0.219413,0.14584 0.3528,0.14584 0.133387,0 0.258058,-0.0523 0.352801,-0.14584 0.09349,-0.0947 0.145843,-0.21942 0.145843,-0.35281 0,-0.12215 -0.04363,-0.23817 -0.124661,-0.32917 v -1.54074 h 0.623306 c 0.893819,0 1.620593,0.72678 1.620593,1.6206 v 0.12466 h -0.747966 c -0.06894,0 -0.124661,0.0557 -0.124661,0.12465 0,0.0689 0.05572,0.12467 0.124661,0.12467 h 0.747966 v 2.24389 h -3.49051 v -2.61787 c 0,-0.69287 -0.379696,-1.2976 -0.941044,-1.6206 z m -1.676837,1.49593 h 2.362229 c 0.0033,0.0413 0.0064,0.0826 0.0064,0.12467 v 0.88357 l -0.550261,0.39834 c -0.0435,0.0317 -0.102327,0.0318 -0.146087,0 L -39.639394,287.62 c 0.0085,-0.0605 0.05842,-0.10786 0.121253,-0.10786 z m 3.490509,0.12467 c 0.04488,0 0.08726,0.0116 0.124661,0.0348 0.0187,0.0104 0.03617,0.0238 0.05113,0.0387 0.04737,0.0462 0.07353,0.10971 0.07353,0.1758 0,0.0661 -0.02616,0.12966 -0.07353,0.17578 -0.04613,0.0474 -0.110968,0.0711 -0.175792,0.0711 -0.06482,0 -0.129667,-0.0237 -0.175791,-0.0711 -0.04737,-0.0462 -0.07353,-0.10971 -0.07353,-0.17578 0,-0.0661 0.02616,-0.12968 0.07353,-0.1758 0.01496,-0.015 0.03243,-0.0288 0.05113,-0.0387 0.0374,-0.0237 0.07978,-0.0348 0.12466,-0.0348 z m 0.872627,0.12466 c -0.06894,0 -0.124661,0.0557 -0.124661,0.12465 0,0.0689 0.05572,0.12467 0.124661,0.12467 h 0.498645 c 0.06894,0 0.124661,-0.0558 0.124661,-0.12467 0,-0.0689 -0.05572,-0.12465 -0.124661,-0.12465 z m -4.487797,0.16386 1.650542,1.19524 c 0.06557,0.0477 0.142701,0.0713 0.219616,0.0713 0.07679,0 0.153436,-0.0237 0.219131,-0.0713 l 0.403931,-0.29243 v 1.42654 h -0.124661 -2.243898 c -0.06881,0 -0.124661,-0.0559 -0.124661,-0.12465 z m 3.241187,1.58139 c -0.06894,0 -0.124661,0.0557 -0.124661,0.12466 v 0.24932 c 0,0.069 0.05572,0.12466 0.124661,0.12466 0.06894,0 0.124661,-0.0557 0.124661,-0.12466 v -0.24932 c 0,-0.0689 -0.05572,-0.12466 -0.124661,-0.12466 z m 0.623305,0 c -0.06894,0 -0.124661,0.0557 -0.124661,0.12466 v 0.24932 c 0,0.069 0.05572,0.12466 0.124661,0.12466 0.06894,0 0.124661,-0.0557 0.124661,-0.12466 v -0.24932 c 0,-0.0689 -0.05572,-0.12466 -0.124661,-0.12466 z m 0.623305,0 c -0.06894,0 -0.124661,0.0557 -0.124661,0.12466 v 0.24932 c 0,0.069 0.05572,0.12466 0.124661,0.12466 0.06894,0 0.124662,-0.0557 0.124662,-0.12466 v -0.24932 c 0,-0.0689 -0.05572,-0.12466 -0.124662,-0.12466 z m 0.623306,0 c -0.06894,0 -0.124661,0.0557 -0.124661,0.12466 v 0.24932 c 0,0.069 0.05572,0.12466 0.124661,0.12466 0.06894,0 0.124661,-0.0557 0.124661,-0.12466 v -0.24932 c 0,-0.0689 -0.05572,-0.12466 -0.124661,-0.12466 z m 0.623305,0 c -0.06894,0 -0.124661,0.0557 -0.124661,0.12466 v 0.24932 c 0,0.069 0.05572,0.12466 0.124661,0.12466 0.06894,0 0.124661,-0.0557 0.124661,-0.12466 v -0.24932 c 0,-0.0689 -0.05572,-0.12466 -0.124661,-0.12466 z m -6.607036,0.99729 h 0.997289 2.243898 0.249322 3.739832 c 0.06881,0 0.124661,0.0559 0.124661,0.12467 0,0.0688 -0.05585,0.12466 -0.124661,0.12466 h -2.243899 -2.49322 -2.493222 c -0.06881,0 -0.124661,-0.0559 -0.124661,-0.12466 0,-0.0688 0.05584,-0.12467 0.124661,-0.12467 z m 2.694821,0.49865 h 2.090021 l -0.09033,0.18041 c -0.02119,0.0426 -0.06389,0.0689 -0.111513,0.0689 h -0.344522 -0.997289 -0.344521 c -0.04762,0 -0.09032,-0.0263 -0.111513,-0.0689 z"
       inkscape:connector-curvature="0"
       style="fill:#ffffff;stroke-width:0.12466107"
       inkscape:export-xdpi="96"
       inkscape:export-ydpi="96" />
    <g
       id="g4886"
       transform="matrix(0.19990677,0,0,0.19990677,-21.154278,327.99905)"
       style="stroke:#800000;stroke-width:5.49134106;stroke-miterlimit:4;stroke-dasharray:none"
       inkscape:export-xdpi="97.478371"
       inkscape:export-ydpi="97.478371">
      <g
         id="Padding__x26__Artboard"
         class="st0"
         style="display:none;stroke:#800000;stroke-width:5.49134106;stroke-miterlimit:4;stroke-dasharray:none" />
      <g
         id="Icons"
         style="fill:none;stroke:#800000;stroke-width:1.34455339;stroke-miterlimit:4;stroke-dasharray:none"
         transform="matrix(4.0841376,0,0,4.0841376,62.155534,-18.97468)"
         inkscape:export-xdpi="96"
         inkscape:export-ydpi="96">
        <g
           id="g4860"
           style="fill:none;stroke:#800000;stroke-width:1.34455339;stroke-miterlimit:4;stroke-dasharray:none">
          <path
             id="path4838"
             d="M 33.57327,23.98734 H 23.9788 c -1.20746,0 -2.19538,-0.98792 -2.19538,-2.19538 v -9.59447 c 0,-1.20746 0.98792,-2.19537 2.19538,-2.19537 h 9.59447 c 1.20746,0 2.19538,0.98792 2.19538,2.19537 v 9.59447 c 0,1.20746 -0.98792,2.19538 -2.19538,2.19538 z"
             class="st1"
             inkscape:connector-curvature="0"
             style="fill:none;stroke:#800000;stroke-width:1.34455339;stroke-linecap:round;stroke-linejoin:round;stroke-miterlimit:4;stroke-dasharray:none" />
          <path
             id="path4840"
             d="m 29.77001,15.7494 v -1.72518 h -0.6855 l -1.30245,0.69693 0.15995,0.61695 1.02825,-0.55983 h 0.02285 v 0.97113 1.90798 2.30785 h 0.14853 0.62838 v -0.43415 -2.41068 -1.371 z"
             class="st2"
             inkscape:connector-curvature="0"
             style="fill:none;stroke:#800000;stroke-width:1.34455339;stroke-miterlimit:4;stroke-dasharray:none" />
          <path
             id="path4842"
             d="m 14.44648,25.05864 c 0.0063,0.37919 0.04541,0.76091 0.11898,1.14134"
             class="st1"
             inkscape:connector-curvature="0"
             style="fill:none;stroke:#800000;stroke-width:1.34455339;stroke-linecap:round;stroke-linejoin:round;stroke-miterlimit:4;stroke-dasharray:none" />
          <path
             id="path4844"
             d="m 17.27106,19.49796 c -0.49059,0.34763 -0.9251,0.7546 -1.29726,1.20651 -0.61924,0.75193 -1.06586,1.62828 -1.31091,2.56275"
             class="st1"
             inkscape:connector-curvature="0"
             style="fill:none;stroke:#800000;stroke-width:1.34455339;stroke-linecap:round;stroke-linejoin:round;stroke-miterlimit:4;stroke-dasharray:none" />
          <g
             id="g4858"
             style="fill:none;stroke:#800000;stroke-width:1.34455339;stroke-miterlimit:4;stroke-dasharray:none">
            <path
               id="path4846"
               d="m 20.07542,16.59719 c -0.29705,0 -0.5941,0.02285 -0.89115,0.06855"
               class="st1"
               inkscape:connector-curvature="0"
               style="fill:none;stroke:#800000;stroke-width:1.34455339;stroke-linecap:round;stroke-linejoin:round;stroke-miterlimit:4;stroke-dasharray:none" />
            <path
               id="path4848"
               d="m 15.5968,18.03279 c -2.91173,2.06328 -4.16513,5.88132 -2.8346,9.33298 l 1.29196,3.37453"
               class="st1"
               inkscape:connector-curvature="0"
               style="fill:none;stroke:#800000;stroke-width:1.34455339;stroke-linecap:round;stroke-linejoin:round;stroke-miterlimit:4;stroke-dasharray:none" />
            <line
               id="line4850"
               y2="37.129581"
               y1="31.42635"
               x2="16.506229"
               x1="31.33659"
               class="st1"
               style="fill:none;stroke:#800000;stroke-width:1.34455339;stroke-linecap:round;stroke-linejoin:round;stroke-miterlimit:4;stroke-dasharray:none" />
            <path
               id="path4852"
               d="m 15.59057,18.0409 -0.11074,-0.28797 c -0.38068,-0.98989 0.11777,-2.11126 1.10766,-2.49194 0.98989,-0.38068 2.11126,0.11777 2.49194,1.10766 l 0.11074,0.28797"
               class="st1"
               inkscape:connector-curvature="0"
               style="fill:none;stroke:#800000;stroke-width:1.34455339;stroke-linecap:round;stroke-linejoin:round;stroke-miterlimit:4;stroke-dasharray:none" />
            <path
               id="path4854"
               d="m 29.2399,25.77 c 0.47999,0.9 1.20687,1.64708 2.15687,2.29708 l 0.03827,0.01585 c 0.26027,0.08585 0.48731,0.24645 0.68528,0.4389 0.20864,0.23986 0.38158,0.49346 0.4569,0.90006 0.1545,0.83405 -0.33952,1.65792 -1.13124,1.96239 l -0.10938,0.04206 -14.83036,5.70324 -0.07573,0.02913 c -0.82669,0.31792 -1.81299,0.04766 -2.25396,-0.72048 -0.34083,-0.59371 -0.28258,-1.26007 0.02759,-1.76445 0.01434,-0.02332 0.02537,-0.04915 0.03143,-0.07585 0.31004,-1.36476 0.27969,-2.65001 -0.18567,-3.85793"
               class="st1"
               inkscape:connector-curvature="0"
               style="fill:none;stroke:#800000;stroke-width:1.34455339;stroke-linecap:round;stroke-linejoin:round;stroke-miterlimit:4;stroke-dasharray:none" />
            <path
               id="path4856"
               d="m 23.03951,34.61711 c 0.47758,1.24186 -0.16071,2.64427 -1.40257,3.12185 l -0.25197,0.0969 c -1.24186,0.47758 -2.65535,-0.13579 -3.13293,-1.37766"
               class="st1"
               inkscape:connector-curvature="0"
               style="fill:none;stroke:#800000;stroke-width:1.34455339;stroke-linecap:round;stroke-linejoin:round;stroke-miterlimit:4;stroke-dasharray:none" />
          </g>
        </g>
      </g>
    </g>
  </g>
  <style
     id="style4835"
     type="text/css">
	.st0{display:none;}
	.st1{fill:none;stroke:#303030;stroke-width:0.7;stroke-linecap:round;stroke-linejoin:round;stroke-miterlimit:10;}
	.st2{fill:#303030;}
</style>
</svg>
